[
    {
        "id": "5a93cda9528f1",
        "module": "button_video",
        "fields": {
            "VideobgType": {
                "type": "text",
                "value": "youtube"
            },
            "VideobgId": {
                "type": "text",
                "value": "iuVUzg6x2yo"
            },
            "filter": {
                "type": "text",
                "value": "filter-red"
            },
            "text": {
                "type": "text",
                "value": "<p style=\"text-align:right;\">Lorem ipsum dolor sit amet, consectetur adipisicing elit. Amet architecto assumenda consequuntur esse eum facere, illum libero molestiae nam <\/p>"
            },
            "title": {
                "type": "text",
                "value": "<h5 style=\"text-align:right;\">Bouton et vid\u00e9o d'arri\u00e8re plan<\/h5>"
            },
            "btnLabel": {
                "type": "text",
                "value": "Cliquez ici !"
            },
            "btnValue": {
                "type": "text",
                "value": "https:\/\/framasoft.org\/"
            }
        }
    },
    {
        "id": "5a92da04096e4",
        "module": "button_design",
        "fields": {
            "imgUrl": {
                "type": "text",
                "value": "app\/views\/modules\/gallery\/aquarelle_17.jpg"
            },
            "text": {
                "type": "text",
                "value": "<p>Si vous souhaitez remercieourager \u00e0 maintenir cet outil et le rendre de plus en plus ergonomique<\/p>"
            },
            "title": {
                "type": "text",
                "value": "<h5>Cet outil vous est utile?<\/h5>"
            },
            "btnLabel": {
                "type": "text",
                "value": "Soutenir l'auteur"
            },
            "btnValue": {
                "type": "text",
                "value": "https:\/\/www.patreon.com\/robinbanquo"
            }
        }
    },
    {
        "id": "5a91f2e64014c",
        "module": "button",
        "fields": {
            "imgUrl": {
                "type": "text",
                "value": ""
            },
            "text": {
                "type": "text",
                "value": "<p style=\"text-align:center;\">Vous avez des comp\u00e9tences en d\u00e9veloppement ou en design ?<\/p><p style=\"text-align:center;\">Des id\u00e9es pour am\u00e9liorer cet outil ?<\/p>"
            },
            "btnLabel": {
                "type": "text",
                "value": "Contribuer \u00e0 cet outil !"
            },
            "btnValue": {
                "type": "text",
                "value": "https:\/\/framagit.org\/framasoft\/PrettyNoemieCMS"
            }
        }
    },
    {
        "id": "5a8fe5883515d",
        "module": "video",
        "fields": {
            "videoType": {
                "type": "text",
                "value": "peertube"
            },
            "videoId": {
                "type": "text",
                "value": "bc5b5ab6-b322-43c3-8881-0d4f17974ca6"
            },
            "title": {
                "type": "text",
                "value": "<h4>Bienvenue !<\/h4>"
            },
            "content": {
                "type": "text",
                "value": "<p>Vous allez voir c'est facile, regardez la vid\u00e9o si vous souhaitez \u00eatre guid\u00e9s dans la cr\u00e9ation de votre site, ou lancez vous directement dans la transformation de la page pour r\u00e9aliser un site moderne et \u00e9l\u00e9gant en un rien de temps !<\/p>"
            }
        }
    },
    {
        "id": "5a8f184b72afc",
        "module": "social_media",
        "fields": {
            "title": {
                "type": "text",
                "value": "<h5 style=\"text-align:center;\">Retrouvez nous sur les r\u00e9seaux sociaux<\/h5>"
            },
            "facebook": {
                "type": "text",
                "value": ""
            },
            "twitter": {
                "type": "text",
                "value": ""
            },
            "linkedin": {
                "type": "text",
                "value": ""
            },
            "mastodon": {
                "type": "text",
                "value": ""
            },
            "youtube": {
                "type": "text",
                "value": ""
            },
            "discord": {
                "type": "text",
                "value": ""
            },
            "instagram": {
                "type": "text",
                "value": ""
            },
            "diaspora": {
                "type": "text",
                "value": ""
            }
        }
    },
    {
        "id": "5a8f4ac71bf0f",
        "module": "button",
        "fields": {
            "imgUrl": {
                "type": "text",
                "value": ""
            },
            "text": {
                "type": "text",
                "value": "<p style=\"text-align:center;\">Vous avez des comp\u00e9tences en d\u00e9veloppement ou en design ?<\/p><p style=\"text-align:center;\">re id\u00e9es pour am\u00e9liorer cet outil ?sqes<\/p>"
            },
            "btnLabel": {
                "type": "text",
                "value": "Contribuer \u00e0 cet outil !"
            },
            "btnValue": {
                "type": "text",
                "value": "https:\/\/framagit.org\/framasoft\/PrettyNoemieCMS"
            }
        },
        "inMenuAs": ""
    },
    {
        "id": "5a8f143f9de2b",
        "module": "paralax",
        "fields": {
            "text": {
                "type": "text",
                "value": "<h5>Bienvenue sur Framasite<\/h5>"
            },
            "imgUrl": {
                "type": "text",
                "value": "app\/views\/modules\/paralax\/background3.jpg"
            }
        }
    },
    {
        "id": "5a8f138208e5e",
        "module": "three_goals",
        "fields": {
            "icon1": {
                "type": "text",
                "value": "audiotrack"
            },
            "content1": {
                "type": "text",
                "value": "<h5>Cr\u00e9er un site web en moins d'une heure<\/h5><p>Cet outil \u00e0 une envie : vous faciliter la vie dans la cr\u00e9ation de votre site web!<\/p>"
            },
            "icon2": {
                "type": "text",
                "value": "backup"
            },
            "content2": {
                "type": "text",
                "value": "<h5>D'une simplicit\u00e9 d\u00e9coiffante<\/h5><p>Une cr\u00e9ation de page pens\u00e9e pour etre la plus intuitive possible.<\/p>"
            },
            "icon3": {
                "type": "text",
                "value": "settings"
            },
            "content3": {
                "type": "text",
                "value": "<h5>Configuration simple et personnalis\u00e9e<\/h5><p>Nous avons essay\u00e9 de trouver le parfait compromis entre simplicit\u00e9 et options vari\u00e9es<\/p>"
            }
        },
        "inMenuAs": ""
    },
    {
        "id": "5a8f138208dbb",
        "module": "video",
        "fields": {
            "videoType": {
                "type": "text",
                "value": "youtube"
            },
            "videoId": {
                "type": "text",
                "value": "5lASkq5RWNE"
            },
            "title": {
                "type": "text",
                "value": "<h4>Bienvenue !<\/h4>"
            },
            "content": {
                "type": "text",
                "value": "<p>Vous allez voir c'est facile, regardez la vid\u00e9o si vous souhaitez \u00eatre guid\u00e9s dans la cr\u00e9ation de votre site, ou lancez vous directement dans la transformation de la page pour r\u00e9aliser un site moderne et \u00e9l\u00e9gant en un rien de temps !<\/p>"
            }
        }
    },
    {
        "id": "5a8f138208ee7",
        "module": "button_design",
        "fields": {
            "imgUrl": {
                "type": "text",
                "value": "app\/views\/modules\/gallery\/aquarelle_17.jpg"
            },
            "text": {
                "type": "text",
                "value": "<p>Si vous souhaitez remercier son cr\u00e9ateur, et l'encourager \u00e0 maintenir cet outil et le rendre de plus en plus ergonomique, avec une petite donnation, c'est ici<\/p>"
            },
            "title": {
                "type": "text",
                "value": "<h5>Cet outil vous est utile?<\/h5>"
            },
            "btnLabel": {
                "type": "text",
                "value": "Soutenir l'auteur"
            },
            "btnValue": {
                "type": "text",
                "value": "https:\/\/www.patreon.com\/robinbanquo"
            }
        }
    },
    {
        "id": "5a8f138208f66",
        "module": "button",
        "fields": {
            "imgUrl": {
                "type": "text",
                "value": ""
            },
            "text": {
                "type": "text",
                "value": "<p style=\"text-align:center;\">Vous avez des comp\u00e9tences en d\u00e9veloppement ou en design ?<\/p><p style=\"text-align:center;\">Des id\u00e9es pour am\u00e9liorer cet outil ?<\/p>"
            },
            "btnLabel": {
                "type": "text",
                "value": "Contribuer \u00e0 cet outil !"
            },
            "btnValue": {
                "type": "text",
                "value": "https:\/\/framagit.org\/framasoft\/PrettyNoemieCMS"
            }
        },
        "inMenuAs": ""
    },
    {
        "id": "footer",
        "fields": {
            "rightText": {
                "type": "text",
                "value": "<h5 class=\"second-color\"><\/h5><p class=\"second-color\">Lorem ipsum dolor sit amet, consectetur adipisicing elit. Accusamus blanditiis explicabo facilis fuga, fugit, id impedit <\/p>"
            },
            "leftText": {
                "type": "text",
                "value": "<h5 class=\"second-color\">PrettyNoemieCMS<\/h5><p class=\"second-color\">Made with love by <b><a href=\"https:\/\/www.patreon.com\/robinbanquo\">Robin Banquo<\/a><\/b><\/p><p><\/p>"
            }
        }
    }
]